{"results":[{"popularity":184.496,"vote_count":171,"video":false,"poster_path":"\/zBhv8rsLOfpFW2M5b6wW78Uoojs.jpg","id":540901,"adult":false,"backdrop_path":"\/5GynP6w2OQWSbKnCLHrBIriF4Cw.jpg","original_language":"en","original_title":"Hustlers","genre_ids":[35,80,18],"title":"Ousadas e Golpistas","vote_average":6.4,"overview":"Inspirado na história verídica de um grupo de strippers que se aliam para se vingarem dos seus clientes ricos de Wall Street. Um filme com Jennifer Lopez, Constance Wu (Crazy Rich Asians), Lili Reinhart (Riverdale) e ainda Lizzo e Cardi B nas suas estreias em cinema.","release_date":"2019-09-12"},{"popularity":115.753,"vote_count":61,"video":false,"poster_path":"\/dJnXQL6Aa4s26eaORTvy0zRskfh.jpg","id":475557,"adult":false,"backdrop_path":"\/hO7KbdvGOtDdeg0W4Y5nKEHeDDh.jpg","original_language":"en","original_title":"Joker","genre_ids":[80,18,53],"title":"Coringa","vote_average":6.3,"overview":"Coringa é uma história original do vilão nunca antes vista no cinema. Arthur Fleck (Joaquin Phoenix) trabalha como palhaço para uma agência de talentos e, toda semana, precisa comparecer a uma agente social, devido aos seus conhecidos problemas mentais. Após ser demitido, Fleck reage mal à gozação de três homens em pleno metrô e os mata. Os assassinatos iniciam um movimento popular contra a elite de Gotham City, da qual Thomas Wayne (Brett Cullen) é seu maior representante. A versão de Phillips sobre Arthur Fleck, um homem desprezado pela sociedade, não é só uma visão realista do personagem, mas também uma lição de vida.","release_date":"2019-10-03"},{"popularity":56.503,"vote_count":20,"video":false,"poster_path":"\/suPfemWGPk8xOePePITOhg1C5EP.jpg","id":568012,"adult":false,"backdrop_path":"\/iGnCzXEx0cFlUbpyAMeHwHWhPhx.jpg","original_language":"ja","original_title":"ワンピーススタンピード","genre_ids":[28,12,16],"title":"ワンピーススタンピード","vote_average":8.6,"overview":"","release_date":"2019-08-09"},{"popularity":48.404,"vote_count":98,"video":false,"poster_path":"\/tAMIXRTHRI7znijZhD6hrR6618J.jpg","id":441282,"adult":false,"backdrop_path":"\/8knaRrDd1FM1pbSLaViEQSxodi5.jpg","original_language":"en","original_title":"Night Hunter","genre_ids":[80,9648,53],"title":"Night Hunter","vote_average":6.1,"overview":"Uma força-tarefa da polícia prende um predador online, apenas para descobrir que a profundidade de seus crimes vai muito além do que eles haviam previsto.","release_date":"2019-08-29"},{"popularity":54.421,"vote_count":27,"video":false,"poster_path":"\/bWcMw1kF71bwIya1el8bDOWaNpu.jpg","id":431580,"adult":false,"backdrop_path":"\/tLCDKsXo6D84IVFanoElosSEKdp.jpg","original_language":"en","original_title":"Abominable","genre_ids":[12,16,35,10751],"title":"Abominável","vote_average":7.4,"overview":"Durante uma viagem ao Himalaia, um grupo de pessoas humildes encontra Everest, um Yeti, popularmente conhecido por sua altura extraordinária e por viver escondido entre as incríveis paisagens do sul da Ásia. Agora, os viajantes precisam ajudar Everest na sua jornada de volta para casa. A sinopse oficial ainda não foi divulgada.","release_date":"2019-09-19"},{"popularity":36.523,"id":453405,"video":false,"vote_count":3,"vote_average":3,"title":"Projeto Gemini","release_date":"2019-10-02","original_language":"en","original_title":"Gemini Man","genre_ids":[28,18,878,53],"backdrop_path":"\/hZJLBaTca4ZBsogOOmr8dR7aO5L.jpg","adult":false,"overview":"Um thriller de ação inovador com Will Smith no papel de Henry Brogan, um assassino de elite, que se torna no alvo de perseguição de um jovem e misterioso agente secreto que parece ser capaz de prever todos os seus movimentos. O filme é realizado pelo vencedor de um Óscar®, Ang Lee, e produzido pelos prestigiados Jerry Bruckheimer, David Ellison, Dana Goldberg e Don Granger. Fazem, também, parte do elenco Mary Elizabeth Winstead, Clive Owen e Benedict Wong.","poster_path":"\/dfgLimbKSyzSGaTgqVhiNCZqc8h.jpg"},{"popularity":41.105,"id":496243,"video":false,"vote_count":732,"vote_average":8.5,"title":"Parasita","release_date":"2019-10-11","original_language":"ko","original_title":"기생충","genre_ids":[18,53,35],"backdrop_path":"\/TU9NIjwzjoKPwQHoHshkFcQUCG.jpg","adult":false,"overview":"Toda a família de Ki-taek está desempregada, vivendo num porão sujo e apertado. Uma obra do acaso faz com que o filho adolescente da família comece a dar aulas de inglês à garota de uma família rica. Fascinados com a vida luxuosa destas pessoas, pai, mãe, filho e filha bolam um plano para se infiltrarem também na família burguesa, um a um. No entanto, os segredos e mentiras necessários à ascensão social custarão caro a todos.","poster_path":"\/tcmj4YQ6p79OD8ECpRAbV8Yjk0c.jpg"},{"popularity":34.281,"vote_count":549,"video":false,"poster_path":"\/pbGJQXK0NEYZmUmjdDVQRrufOle.jpg","id":459992,"adult":false,"backdrop_path":"\/88r25ghJzVYKq0vaOApqEOZsQlD.jpg","original_language":"en","original_title":"Long Shot","genre_ids":[35,10749],"title":"Casal Improvável","vote_average":6.7,"overview":"Um jornalista (Seth Rogen) solitário, sem emprego, autodestrutivo e fracassado tenta mudar os rumos de sua vida. Ele passa a perseguir uma antiga babá (Charlize Theron), que hoje se tornou uma das mulheres mais poderosas do mundo.","release_date":"2019-06-20"},{"popularity":34.115,"vote_count":186,"video":false,"poster_path":"\/vOl6shtL0wknjaIs6JdKCpcHvg8.jpg","id":567609,"adult":false,"backdrop_path":"\/j8uPZSPjKYzHlN2B4NhPQVWWZ5x.jpg","original_language":"en","original_title":"Ready or Not","genre_ids":[35,27,9648,53],"title":"Ready or Not - O Ritual","vote_average":7,"overview":"Grace (Samara Weaving) acaba de se casar com o herdeiro milionário de uma família especializada em jogos de tabuleiro. Antes de realmente integrar a família, no entanto, ela é obrigada a participar de uma tradição familiar: um jogo de esconde-esconde pela mansão dos Le Domas. Aos poucos, Grace percebe que a brincadeira inocente é na verdade uma caçada sangrenta contra a recém-casada, em que todas as armas e golpes são permitidos para assassiná-la. A jovem terá a difícil missão de sobreviver aos ataques até o amanhecer.","release_date":"2019-08-21"},{"popularity":32.167,"vote_count":1367,"video":false,"poster_path":"\/4s8lWdnMLKhWIGXuenty7QvXL4N.jpg","id":527641,"adult":false,"backdrop_path":"\/d7wa3VpUpKDQ7GG9EMw8zSJCFoI.jpg","original_language":"en","original_title":"Five Feet Apart","genre_ids":[18,10749],"title":"A Cinco Passos de Você","vote_average":8.2,"overview":"Aos dezesseis anos de idade, Stella Grant (Haley Lu Richardson) é diferente da maior parte dos adolescentes: devido a uma fibrose cística, ela passa muito tempo no hospital, entre tratamentos e acompanhamento médico. Um dia, conhece Will Newman (Cole Sprouse), garoto que sofre da mesma doença que ela. A atração é imediata, porém os dois são obrigados a manter distância um do outro por questões de saúde. Enquanto Stella pensa em quebrar as regras e se aproximar do garoto da sua vida, Will começa a se rebelar contra o sistema e recusar o rigoroso tratamento.","release_date":"2019-03-21"},{"popularity":24.268,"id":454640,"video":false,"vote_count":139,"vote_average":6.2,"title":"Angry Birds 2: O Filme","release_date":"2019-10-03","original_language":"en","original_title":"The Angry Birds Movie 2","genre_ids":[16,35,28,12,10751],"backdrop_path":"\/k7sE3loFwuU2mqf7FbZBeE3rjBa.jpg","adult":false,"overview":"As novas aventuras dos pássaros mais mal humorados do planeta. Depois de descobrirem os mistérios por trás da chegada dos porcos na ilha em que viviam, Red, Chuck e Bomb se juntam em novas confusões, cada vez mais irritados.","poster_path":"\/ebe8hJRCwdflNQbUjRrfmqtUiNi.jpg"},{"popularity":22.592,"vote_count":377,"video":false,"poster_path":"\/gfiEjfkcFUnwfngnSYduqbzG5A9.jpg","id":519010,"adult":false,"backdrop_path":"\/lZBG6PZDE79ERwhvZ2nmj7IiHTA.jpg","original_language":"es","original_title":"Dolor y gloria","genre_ids":[18],"title":"Dor e Glória","vote_average":7.6,"overview":"Salvador Mallo (Antonio Banderas) é um melancólico cineasta em declínio que se vê obrigado a pensar sobre as escolhas que fez na vida quando seu passado retorna. Entre lembranças e reencontros, ele reflete sobre sua infância na década de 1960, seu processo de imigração para a Espanha, seu primeiro amor maduro e sua relação com a escrita e com o cinema.","release_date":"2019-06-13"},{"popularity":22.906,"vote_count":156,"video":false,"poster_path":"\/gHR6tyMsmlguestxaU5PtRd1APD.jpg","id":499701,"adult":false,"backdrop_path":"\/61sbyO47yIpsMFyLhY1MWcqjg1Q.jpg","original_language":"en","original_title":"Dora and the Lost City of Gold","genre_ids":[12,35,10751],"title":"Dora e a Cidade Perdida","vote_average":6.3,"overview":"A aventureira Dora rapidamente se vê liderando o macaco Botas, o primo Diego, um misterioso habitante da selva, seus pais e um grupo de adolescentes em uma aventura para resolver um mistério impossível por trás de uma cidade perdida de ouro","release_date":"2019-08-08"},{"popularity":37.089,"vote_count":1,"video":false,"poster_path":"\/5hIORX639YfDlhXfWJTac6bqWlo.jpg","id":491283,"adult":false,"backdrop_path":"\/99BHWZowADkJ0yKKGFZs4NfsX8q.jpg","original_language":"en","original_title":"Judy","genre_ids":[18,36,10749],"title":"Judy","vote_average":0,"overview":"","release_date":"2019-09-27"},{"popularity":25.047,"id":420809,"video":false,"vote_count":0,"vote_average":0,"title":"Malévola - Dona do Mal","release_date":"2019-10-17","original_language":"en","original_title":"Maleficent: Mistress of Evil","genre_ids":[14,12,10751],"backdrop_path":"\/q9mF0HhnKT5deOIRAQSFjhLC8c1.jpg","adult":false,"overview":"Uma aventura que se passa vários anos depois de \"Malévola\" - em que o público aprendeu sobre os eventos que endureceram o coração da vilã mais famosa da Disney e a levou a amaldiçoar a pequena princesa Aurora, \"Malévola II\" continua a explorar a relação complexa entre a fada de chifres e a quase rainha, ao formarem novas alianças e enfrentarem novos adversários em sua luta para proteger os mouros e as criaturas mágicas.","poster_path":"\/yv8PCIQRh70LNhhcIfUySEFZ67R.jpg"},{"popularity":13.101,"vote_count":0,"video":false,"poster_path":"\/dUwpZl6QJUFoqkhEcu10Hzbd5Bn.jpg","id":621268,"adult":false,"backdrop_path":"\/kE1DrWfa82iqnWahWZDAU2wEfIM.jpg","original_language":"es","original_title":"Así habló el cambista","genre_ids":[35,18],"title":"Así habló el cambista","vote_average":0,"overview":"","release_date":"2019-09-26"},{"popularity":21.357,"id":611788,"video":false,"vote_count":0,"vote_average":0,"title":"A Caçadora – Ruína dos Mortos","release_date":"2019-10-19","original_language":"en","original_title":"The Huntress:  Rune of the Dead","genre_ids":[27,53,28],"backdrop_path":"\/53Vy0XKsf0pRRhbdYNmkaIFkBsV.jpg","adult":false,"overview":"811 A.D, uma família, isolada em sua casa, no fundo da floresta alguns dias de viagem de Birka. Eles são pobres. A caça e a pesca têm sido ruins há algum tempo, e o pai, Joar, toma a medida desesperada de ir em um ataque Viking. Joar não volta por muito tempo, e a família começa a temer que ele nunca vai. Runa, a filha mais velha, assume as tarefas de seus pais em sua ausência. Ela sente saudades dele e nutre uma esperança tenra que ele, mais uma vez, voltará para eles.  Mas em seu coração, de alguma forma ela sabe, que o sofrimento da família acaba de começar. Há algo no ar, algo na água, o vento e no solo. Runa está se tornando consciente de algo vil, algo perigoso na floresta. Um dia, quando ela está caçando, ela encontra um homem sangrando, um guerreiro, quase inconsciente. Ela o traz para dentro e a família tende a suas feridas. Quando ele cura, ela percebe que ele é enviado para proteger a família de um mal se aproximando. E ele traz notícias de seu pai.","poster_path":"\/qZdBQiU4cEqOrCPyEoBxxM7INsi.jpg"},{"popularity":19.06,"vote_count":28,"video":false,"poster_path":"\/dTdMa0g5suSqyxL9zXEFbKQADiG.jpg","id":472674,"adult":false,"backdrop_path":"\/lXSJETt0cbiemixfHuBpopAg8pT.jpg","original_language":"en","original_title":"The Goldfinch","genre_ids":[18],"title":"O Pintassilgo","vote_average":6.7,"overview":"","release_date":"2019-10-10"},{"popularity":16.37,"id":480105,"video":false,"vote_count":69,"vote_average":5.4,"title":"Medo Profundo 2 - O Segundo Ataque","release_date":"2019-08-15","original_language":"en","original_title":"47 Meters Down: Uncaged","genre_ids":[53,27,12],"backdrop_path":"\/3uG3aOhEzFCjcQulsJQiAzLSrw8.jpg","adult":false,"overview":"Um grupo de cinco amigas aventureiras viaja até Recife, região nordeste do Brasil, para conhecer as ruínas de uma cidade subaquática, no litoral da cidade. No entanto, durante o passeio pelo fundo do mar, elas descobrem que não estão sozinhas e os verdadeiros \"moradores\" do local não estão muito satisfeitos com as visitas.","poster_path":"\/mZje0fQFGiOZNFg7im2ZHKaxgxz.jpg"},{"popularity":15.612,"vote_count":107,"video":false,"poster_path":"\/xxwb5KBqS0SHsUcyLgWMk3vuVxY.jpg","id":523172,"adult":false,"backdrop_path":"\/smsd8whMlYuIDvfGc63AZ5eTJHo.jpg","original_language":"en","original_title":"Late Night","genre_ids":[35,18],"title":"Late Night","vote_average":6.8,"overview":"","release_date":"2019-06-06"}],"page":1,"total_results":259,"dates":{"maximum":"2019-10-20","minimum":"2019-10-05"},"total_pages":13}
